{
  "schemaVersion": 1,
  "id": "yummy",
  "version": "${version}",

  "name": "Yummy",
  "description": "More realistic food.",
  "authors": [
	"Kuzma Shapran"
  ],
  "contact": {
	"homepage": "https://fabricmc.net/",
	"sources": "https://github.com/FabricMC/fabric-example-mod"
  },

  "license": "LGPL-3",
  "icon": "assets/yummy/icon.png",

  "environment": "*",
  "entrypoints": {
	"main": [
	  "name.kuzmas.yummy.Yummy"
	],
	"client": [
	  "name.kuzmas.yummy.YummyClient"
	]
  },
  "mixins": [
	"yummy.mixins.json"
  ],

  "depends": {
	"fabricloader": ">=0.12.12",
	"fabric": "*",
	"minecraft": "1.18.x",
	"java": ">=16"
  },
  "suggests": {
	"another-mod": "*"
  }
}
