{
	"type": "minecraft:crafting_shapeless",
	"result": {
		"item": "yummy:barrel_of_whiskey"
	},
	"ingredients": [
		{
			"item": "minecraft:barrel"
		},
		{
			"item": "minecraft:water_bucket"
		},
		{
			"item": "minecraft:sugar"
		},
		{
			"item": "minecraft:wheat"
		},
		{
			"item": "minecraft:wheat"
		}
	]
}