{
	"type": "minecraft:crafting_shaped",
	"result": {
		"item": "yummy:berry_cider",
		"count": 8
	},
	"pattern": [
		"bbb",
		"bBb",
		"bbb"
	],
	"key": {
		"b": {
			"item": "minecraft:glass_bottle"
		},
		"B": {
			"item": "yummy:barrel_of_berry_cider"
		}
	}
}