{
	"type": "minecraft:crafting_shapeless",
	"result": {
		"item": "yummy:berry_icecream",
		"count": 2
	},
	"ingredients": [
		{
			"item": "minecraft:milk_bucket"
		},
		{
			"item": "minecraft:sugar"
		},
		{
			"item": "minecraft:egg"
		},
		{
			"item": "minecraft:snowball"
		},
		{
			"item": "minecraft:sweet_berries"
		}
	]
}