{
	"type": "minecraft:crafting_shapeless",
	"result": {
		"item": "yummy:chips_with_ketchup",
		"count": 3
	},
	"ingredients": [
		{
			"item": "yummy:chips"
		},
		{
			"item": "yummy:chips"
		},
		{
			"item": "yummy:chips"
		},
		{
			"item": "yummy:ketchup"
		}
	]
}