{
	"type": "minecraft:crafting_shapeless",
	"result": {
		"item": "yummy:fruit_salad",
		"count": 3
	},
	"ingredients": [
		{
			"item": "minecraft:melon_slice"
		},
		{
			"item": "minecraft:sweet_berries"
		},
		{
			"item": "minecraft:apple"
		},
		{
			"item": "minecraft:bowl"
		},
		{
			"item": "minecraft:bowl"
		},
		{
			"item": "minecraft:bowl"
		}
	]
}