{
	"type": "minecraft:crafting_shapeless",
	"result": {
		"item": "yummy:hot_chocolate"
	},
	"ingredients": [
		{
			"item": "minecraft:milk_bucket"
		},
		{
			"item": "minecraft:sugar"
		},
		{
			"item": "minecraft:cocoa_beans"
		},
		{
			"item": "minecraft:glass_bottle"
		}
	]
}