{
	"type": "minecraft:crafting_shapeless",
	"result": {
		"item": "yummy:mushroom_stuffed_eggs",
		"count": 2
	},
	"ingredients": [
		{
			"item": "minecraft:egg"
		},
		{
			"item": "minecraft:brown_mushroom"
		}
	]
}