{
	"type": "minecraft:crafting_shaped",
	"result": {
		"item": "yummy:raw_gyros",
		"count": 2
	},
	"pattern": [
		"  /",
		" X ",
		"/  "
	],
	"key": {
		"X": {
			"item": "minecraft:chicken"
		},
		"/": {
			"item": "minecraft:stick"
		}
	}
}