{
	"type": "minecraft:crafting_shapeless",
	"result": {
		"item": "yummy:raw_mutton_dumplings",
		"count": 3
	},
	"ingredients": [
		{
			"item": "minecraft:mutton"
		},
		{
			"item": "minecraft:wheat"
		}
	]
}