{
	"type": "minecraft:crafting_shapeless",
	"result": {
		"item": "yummy:risotto"
	},
	"ingredients": [
		{
			"item": "minecraft:bowl"
		},
		{
			"item": "minecraft:brown_mushroom"
		},
		{
			"item": "yummy:cheese_wedge"
		},
		{
			"item": "yummy:bowl_of_rice"
		}
	]
}